-1
-99999
98
99
990
991
992
993
994
995
996
997
998
999
9990
9991
9992
9993
9994
9995
9996
9997
9998
9999
99990
99991
99992
99993
99994
99995
99996
99997
99998
99999
999990
999991
999992
999993
999994
999995
999996
999997
999998
999999
9999990
9999991
9999992
9999993
9999994
9999995
9999996
9999997
9999998
9999999
99999990
99999991
99999992
99999993
99999994
99999995
99999996
99999997
99999998
99999999
999999990
999999991
999999992
999999993
999999994
999999995
999999996
999999997
999999998
999999999
9999999990
9999999991
9999999992
9999999993
9999999994
9999999995
9999999996
9999999997
9999999998
9999999999
99999999990
99999999991
99999999992
99999999993
99999999994
99999999995
99999999996
99999999997
99999999998
99999999999
999999999990
999999999991
999999999992
999999999993
999999999994
999999999995
999999999996
999999999997
999999999998
999999999999
9999999999990
9999999999991
9999999999992
9999999999993
9999999999994
9999999999995
9999999999996
9999999999997
9999999999998
9999999999999
