VAR_0626,VAR_1389
VAR_1539,VAR_1572
VAR_0812,VAR_1534
VAR_1563,VAR_1566
VAR_0562,VAR_1577
VAR_0819,VAR_0822
VAR_0792,VAR_0818
VAR_0793,VAR_1546
VAR_0831,VAR_0833
VAR_1569,VAR_1571
VAR_0567,VAR_0626
VAR_1164,VAR_1567
VAR_1388,VAR_1564
VAR_0618,VAR_0626
VAR_0623,VAR_1165
VAR_1387,VAR_1535
VAR_0624,VAR_1542
VAR_0569,VAR_0813
VAR_0813,VAR_1559
VAR_0562,VAR_0824
VAR_0619,VAR_1577
VAR_1544,VAR_1557
VAR_1166,VAR_1574
VAR_0822,VAR_1168
VAR_1537,VAR_1567
VAR_0836,VAR_1548
VAR_0730,VAR_1427
VAR_0847,VAR_1164
VAR_1532,VAR_1561
VAR_0723,VAR_1558
VAR_0564,VAR_0627
VAR_0567,VAR_0730
VAR_0723,VAR_1549
VAR_0824,VAR_0831
VAR_0618,VAR_0813
VAR_0626,VAR_1538
VAR_0566,VAR_0813
VAR_0794,VAR_1387
VAR_0627,VAR_1543
VAR_0822,VAR_1428
VAR_0813,VAR_1556
VAR_0619,VAR_1570
VAR_0618,VAR_1574
VAR_0623,VAR_0831
VAR_0624,VAR_1166
VAR_0624,VAR_0795
VAR_0821,VAR_1162
VAR_0742,VAR_0812
VAR_0569,VAR_1565
VAR_0562,VAR_1164
VAR_0822,VAR_1565
VAR_0815,VAR_0836
VAR_1166,VAR_1546
VAR_0814,VAR_1569
VAR_0813,VAR_1539
VAR_1163,VAR_1387
VAR_0812,VAR_1556
VAR_0722,VAR_1577
VAR_0723,VAR_1551
VAR_0566,VAR_1566
VAR_0924,VAR_1572
VAR_0877,VAR_1556
VAR_0726,VAR_1556
VAR_1167,VAR_1565
VAR_0793,VAR_1163
VAR_1545,VAR_1567
VAR_0624,VAR_1386
VAR_0627,VAR_1544
VAR_0877,VAR_1569
VAR_0726,VAR_1533
VAR_0627,VAR_1566
VAR_0625,VAR_1562
VAR_0794,VAR_1165
VAR_0813,VAR_1564
VAR_0627,VAR_0794
VAR_0816,VAR_0836
VAR_0821,VAR_0924
VAR_0818,VAR_1388
VAR_0620,VAR_0622
VAR_0562,VAR_1566
VAR_0831,VAR_1574
VAR_0625,VAR_0812
VAR_0813,VAR_1532
VAR_1427,VAR_1547
VAR_0567,VAR_0822
VAR_1559,VAR_1561
VAR_0564,VAR_1571
VAR_0723,VAR_1547
VAR_0877,VAR_1533
VAR_0618,VAR_0831
VAR_0793,VAR_1168
VAR_0565,VAR_1567
VAR_0832,VAR_0877
VAR_0563,VAR_0794
VAR_1542,VAR_1549
VAR_1546,VAR_1569
VAR_0627,VAR_1164
VAR_0812,VAR_1565
VAR_0822,VAR_1571
VAR_1387,VAR_1569
VAR_1565,VAR_1569
VAR_1549,VAR_1577
VAR_0877,VAR_1164
VAR_0563,VAR_1570
VAR_0740,VAR_1387
VAR_1168,VAR_1561
VAR_0620,VAR_1557
VAR_0623,VAR_1534
VAR_0566,VAR_1387
VAR_0723,VAR_1167
VAR_0730,VAR_0813
VAR_0563,VAR_0793
VAR_0624,VAR_0626
VAR_0726,VAR_0815
VAR_1164,VAR_1387
VAR_0626,VAR_1574
VAR_0622,VAR_0824
VAR_0742,VAR_0877
VAR_0569,VAR_0624
VAR_0564,VAR_0565
VAR_0815,VAR_1386
VAR_0618,VAR_0794
VAR_0794,VAR_1568
VAR_0740,VAR_0813
VAR_0567,VAR_1571
VAR_0836,VAR_1386
VAR_0822,VAR_1533
VAR_0741,VAR_1574
VAR_0730,VAR_0924
VAR_0816,VAR_1572
VAR_0567,VAR_0847
VAR_0795,VAR_1565
VAR_0620,VAR_1563
VAR_0567,VAR_1557
VAR_0619,VAR_0726
VAR_1166,VAR_1386
VAR_1565,VAR_1568
VAR_1546,VAR_1574
VAR_0792,VAR_1535
VAR_0718,VAR_1562
VAR_0626,VAR_0820
VAR_0828,VAR_1567
VAR_0730,VAR_1561
VAR_0816,VAR_1389
VAR_1387,VAR_1547
VAR_0812,VAR_1558
VAR_1552,VAR_1564
VAR_0626,VAR_0795
VAR_0562,VAR_0726
VAR_0617,VAR_1568
VAR_0822,VAR_1534
VAR_0836,VAR_1565
VAR_0741,VAR_0828
VAR_0563,VAR_0627
VAR_0730,VAR_0831
VAR_1566,VAR_1568
VAR_0567,VAR_1533
VAR_1547,VAR_1557
VAR_0718,VAR_1569
VAR_1562,VAR_1572
VAR_0795,VAR_1551
VAR_1544,VAR_1577
VAR_0569,VAR_1572
VAR_0815,VAR_1388
VAR_1386,VAR_1570
VAR_0824,VAR_1558
VAR_0813,VAR_1571
VAR_0623,VAR_1427
VAR_0722,VAR_1537
VAR_0793,VAR_0816
VAR_1549,VAR_1562
VAR_0877,VAR_1427
VAR_0821,VAR_1166
VAR_1538,VAR_1572
VAR_1564,VAR_1574
VAR_0564,VAR_1557
VAR_0740,VAR_1572
VAR_0621,VAR_0795
VAR_1562,VAR_1569
VAR_0831,VAR_1577
VAR_0836,VAR_1551
VAR_0567,VAR_1534
VAR_0722,VAR_1558
VAR_0758,VAR_0813
VAR_0622,VAR_0793
VAR_0621,VAR_1387
VAR_1165,VAR_1427
VAR_0627,VAR_1570
VAR_0792,VAR_1558
VAR_0565,VAR_0877
VAR_0812,VAR_1389
VAR_0847,VAR_1546
VAR_0824,VAR_1551
VAR_1386,VAR_1547
VAR_1557,VAR_1564
VAR_0619,VAR_0795
VAR_1533,VAR_1548
VAR_0836,VAR_1539
VAR_0822,VAR_1164
VAR_1165,VAR_1567
VAR_0829,VAR_0836
VAR_1542,VAR_1546
VAR_1548,VAR_1574
VAR_0822,VAR_1557
VAR_1388,VAR_1554
VAR_0794,VAR_0847
VAR_0831,VAR_1570
VAR_1165,VAR_1166
VAR_0569,VAR_0831
VAR_0621,VAR_1568
VAR_0563,VAR_1387
VAR_0795,VAR_0824
VAR_0833,VAR_1572
VAR_0620,VAR_0723
VAR_0618,VAR_1566
VAR_0792,VAR_1551
VAR_0618,VAR_1388
VAR_0620,VAR_1571
VAR_0813,VAR_1548
VAR_0795,VAR_1539
VAR_0821,VAR_0833
VAR_0625,VAR_1571
VAR_0568,VAR_1386
VAR_0625,VAR_0821
VAR_0622,VAR_1546
VAR_0793,VAR_0924
VAR_0722,VAR_1547
VAR_0822,VAR_1163
VAR_0923,VAR_1386
VAR_0617,VAR_0722
VAR_1386,VAR_1556
VAR_1387,VAR_1427
VAR_1549,VAR_1567
VAR_0627,VAR_0814
VAR_0567,VAR_1164
VAR_0619,VAR_0625
VAR_0722,VAR_1556
VAR_0741,VAR_1561
VAR_0564,VAR_0722
VAR_0625,VAR_0793
VAR_0623,VAR_0722
VAR_1164,VAR_1389
VAR_0619,VAR_1565
VAR_0625,VAR_1164
VAR_1387,VAR_1556
VAR_0566,VAR_0831
VAR_0813,VAR_1543
VAR_1387,VAR_1389
VAR_0831,VAR_1532
VAR_0568,VAR_1565
VAR_0822,VAR_0923
VAR_0847,VAR_1574
VAR_0562,VAR_0625
VAR_0619,VAR_1538
VAR_0621,VAR_0822
VAR_0822,VAR_1543
VAR_1539,VAR_1565
VAR_1167,VAR_1561
VAR_0565,VAR_0624
VAR_1389,VAR_1542
VAR_0621,VAR_1538
VAR_0563,VAR_1547
VAR_1533,VAR_1565
VAR_0620,VAR_1548
VAR_0562,VAR_0924
VAR_0618,VAR_1548
VAR_0795,VAR_1165
VAR_0740,VAR_0792
VAR_0624,VAR_1567
VAR_0730,VAR_1543
VAR_0627,VAR_1569
VAR_0625,VAR_1544
VAR_1533,VAR_1577
VAR_0813,VAR_1167
VAR_0723,VAR_1534
VAR_0569,VAR_0792
VAR_1389,VAR_1533
VAR_0821,VAR_1542
VAR_0813,VAR_0815
VAR_0624,VAR_0831
VAR_0821,VAR_1538
VAR_0726,VAR_1545
VAR_0723,VAR_1570
VAR_0625,VAR_0741
VAR_1164,VAR_1166
VAR_0620,VAR_1543
VAR_0619,VAR_1389
VAR_0626,VAR_0836
VAR_1386,VAR_1389
VAR_0617,VAR_0836
VAR_0622,VAR_0726
VAR_0723,VAR_1427
VAR_0621,VAR_0819
VAR_1162,VAR_1163
VAR_1545,VAR_1565
VAR_0794,VAR_1553
VAR_0566,VAR_0792
VAR_0569,VAR_0795
VAR_0793,VAR_1534
VAR_0831,VAR_0923
VAR_0831,VAR_1428
VAR_1388,VAR_1548
VAR_0741,VAR_1546
VAR_0623,VAR_1542
VAR_0618,VAR_1546
VAR_0567,VAR_0813
VAR_1428,VAR_1544
VAR_0741,VAR_0794
VAR_0924,VAR_1546
VAR_0718,VAR_1570
VAR_0831,VAR_1565
VAR_0792,VAR_1542
VAR_0723,VAR_0877
VAR_0824,VAR_1540
VAR_1387,VAR_1538
VAR_0821,VAR_1571
VAR_0622,VAR_0626
VAR_1534,VAR_1545
VAR_0793,VAR_0836
VAR_0562,VAR_1544
VAR_0723,VAR_0833
VAR_0758,VAR_0792
VAR_0831,VAR_0924
VAR_0625,VAR_0814
VAR_1427,VAR_1565
VAR_0923,VAR_1566
VAR_0620,VAR_1547
VAR_0623,VAR_1545
VAR_0722,VAR_1168
VAR_0794,VAR_0819
VAR_0567,VAR_1387
VAR_0566,VAR_0722
VAR_1165,VAR_1571
VAR_0621,VAR_0722
VAR_0565,VAR_0828
VAR_0623,VAR_1568
VAR_0564,VAR_1561
VAR_0564,VAR_0831
VAR_1164,VAR_1568
VAR_0620,VAR_1166
VAR_0621,VAR_1574
VAR_0618,VAR_1166
VAR_0627,VAR_0722
VAR_0625,VAR_0726
VAR_1533,VAR_1543
VAR_1163,VAR_1566
VAR_0568,VAR_0722
VAR_0625,VAR_0627
VAR_0626,VAR_1545
VAR_0624,VAR_0627
VAR_0821,VAR_1387
VAR_0814,VAR_0820
VAR_0718,VAR_0831
VAR_1548,VAR_1563
VAR_0741,VAR_1386
VAR_0813,VAR_0877
VAR_0836,VAR_1166
VAR_1164,VAR_1388
VAR_0793,VAR_1571
VAR_0617,VAR_1386
VAR_1164,VAR_1566
VAR_1161,VAR_1561
VAR_1387,VAR_1533
VAR_0624,VAR_1548
VAR_0812,VAR_1571
VAR_0812,VAR_0821
VAR_0794,VAR_1562
VAR_1543,VAR_1546
VAR_0624,VAR_0726
VAR_1427,VAR_1566
VAR_0818,VAR_0877
VAR_0794,VAR_0822
VAR_0812,VAR_1535
VAR_1544,VAR_1567
VAR_1568,VAR_1577
VAR_0723,VAR_0813
VAR_0617,VAR_1166
VAR_0924,VAR_1562
VAR_0562,VAR_1570
VAR_0564,VAR_1387
VAR_0619,VAR_0836
VAR_0793,VAR_1545
VAR_0831,VAR_0832
VAR_1569,VAR_1572
VAR_0567,VAR_0627
VAR_1545,VAR_1547
VAR_1388,VAR_1565
VAR_0618,VAR_0625
VAR_0623,VAR_1164
VAR_0619,VAR_1164
VAR_0624,VAR_1543
VAR_0627,VAR_1549
VAR_0569,VAR_0812
VAR_0813,VAR_1558
VAR_0624,VAR_1561
VAR_0718,VAR_0792
VAR_0622,VAR_1561
VAR_0569,VAR_0625
VAR_0566,VAR_0740
VAR_0794,VAR_1577
VAR_0563,VAR_0877
VAR_0816,VAR_0822
VAR_0723,VAR_0924
VAR_0741,VAR_0813
VAR_0795,VAR_1161
VAR_0741,VAR_1388
VAR_1165,VAR_1533
VAR_0792,VAR_1571
VAR_0617,VAR_1388
VAR_0564,VAR_0626
VAR_0722,VAR_1546
VAR_0564,VAR_1165
VAR_0619,VAR_0626
VAR_0793,VAR_1165
VAR_0624,VAR_1388
VAR_0627,VAR_1542
VAR_1546,VAR_1562
VAR_0565,VAR_0813
VAR_0813,VAR_1551
VAR_0821,VAR_1164
VAR_1569,VAR_1570
VAR_0627,VAR_1568
VAR_0624,VAR_1167
VAR_1164,VAR_1533
VAR_0824,VAR_1570
VAR_1166,VAR_1533
VAR_0742,VAR_0813
VAR_0792,VAR_0820
VAR_0813,VAR_0923
VAR_0722,VAR_0758
VAR_0821,VAR_1556
VAR_1166,VAR_1427
VAR_0819,VAR_0821
VAR_0618,VAR_0822
VAR_0722,VAR_1574
VAR_1557,VAR_1566
VAR_1545,VAR_1549
VAR_0726,VAR_1557
VAR_0877,VAR_1535
VAR_0793,VAR_1162
VAR_0623,VAR_1558
VAR_0620,VAR_1558
VAR_0624,VAR_1387
VAR_0627,VAR_1389
VAR_1389,VAR_1559
VAR_0814,VAR_1556
VAR_0831,VAR_1559
VAR_0794,VAR_1166
VAR_0564,VAR_1428
VAR_0794,VAR_0795
VAR_1386,VAR_1552
VAR_1427,VAR_1572
VAR_0567,VAR_0792
VAR_0568,VAR_0625
VAR_0822,VAR_1577
VAR_1387,VAR_1563
VAR_0562,VAR_1565
VAR_1166,VAR_1428
VAR_0828,VAR_0833
VAR_0831,VAR_1167
VAR_0730,VAR_1428
VAR_0792,VAR_1427
VAR_1427,VAR_1548
VAR_0617,VAR_1548
VAR_0567,VAR_0723
VAR_0877,VAR_1532
VAR_0618,VAR_0836
VAR_0565,VAR_1564
VAR_0723,VAR_1562
VAR_0563,VAR_0795
VAR_0792,VAR_1562
VAR_0564,VAR_1427
VAR_0831,VAR_1551
VAR_0812,VAR_1564
VAR_0620,VAR_0831
VAR_0822,VAR_1570
VAR_1387,VAR_1568
VAR_0792,VAR_1428
VAR_1549,VAR_1574
VAR_0567,VAR_1577
VAR_0563,VAR_1577
VAR_0828,VAR_1427
VAR_0836,VAR_1388
VAR_0793,VAR_1556
VAR_0627,VAR_1387
VAR_1547,VAR_1569
VAR_0723,VAR_1164
VAR_0833,VAR_0877
VAR_0792,VAR_1565
VAR_0618,VAR_0722
VAR_1545,VAR_1572
VAR_0626,VAR_1577
VAR_0620,VAR_0836
VAR_0568,VAR_0795
VAR_0812,VAR_1547
VAR_1162,VAR_1566
VAR_0618,VAR_0793
VAR_0617,VAR_0794
VAR_1166,VAR_1565
VAR_0740,VAR_0824
VAR_0567,VAR_1570
VAR_1165,VAR_1543
VAR_0565,VAR_1572
VAR_0741,VAR_1577
VAR_1547,VAR_1562
VAR_1386,VAR_1563
VAR_0726,VAR_0820
VAR_0795,VAR_1564
VAR_1166,VAR_1387
VAR_0792,VAR_1534
VAR_1166,VAR_1572
VAR_0718,VAR_1563
VAR_0626,VAR_0821
VAR_1543,VAR_1577
VAR_0822,VAR_1166
VAR_0569,VAR_1574
VAR_1427,VAR_1534
VAR_1162,VAR_1561
VAR_1387,VAR_1546
VAR_0836,VAR_1542
VAR_0812,VAR_1559
VAR_0726,VAR_1428
VAR_1552,VAR_1567
VAR_0626,VAR_0792
VAR_0722,VAR_0832
VAR_0836,VAR_1564
VAR_0567,VAR_1561
VAR_0621,VAR_0793
VAR_1562,VAR_1567
VAR_0563,VAR_0620
VAR_1389,VAR_1532
VAR_0621,VAR_1164
VAR_0619,VAR_1558
VAR_1566,VAR_1569
VAR_0621,VAR_0627
VAR_0814,VAR_1563
VAR_0795,VAR_1556
VAR_0812,VAR_1387
VAR_0824,VAR_1557
VAR_0813,VAR_1570
VAR_0627,VAR_1428
VAR_0730,VAR_1568
VAR_0722,VAR_1534
VAR_0623,VAR_0923
VAR_0620,VAR_0741
VAR_0836,VAR_0847
VAR_0778,VAR_0812
VAR_0625,VAR_0831
VAR_0619,VAR_0824
VAR_1164,VAR_1557
VAR_0567,VAR_1568
VAR_0621,VAR_0794
VAR_0813,VAR_1427
VAR_1164,VAR_1572
VAR_0836,VAR_1552
VAR_0620,VAR_0624
VAR_0877,VAR_1577
VAR_0722,VAR_1559
VAR_0758,VAR_0812
VAR_0877,VAR_1163
VAR_0621,VAR_1386
VAR_0627,VAR_1571
VAR_0792,VAR_1557
VAR_0568,VAR_0822
VAR_0568,VAR_1572
VAR_1167,VAR_1388
VAR_0822,VAR_0836
VAR_1387,VAR_1548
VAR_1386,VAR_1540
VAR_0569,VAR_1546
VAR_1386,VAR_1562
VAR_0822,VAR_1165
VAR_0718,VAR_0824
VAR_0877,VAR_0924
VAR_0722,VAR_1563
VAR_0822,VAR_1556
VAR_0627,VAR_0812
VAR_1388,VAR_1557
VAR_1428,VAR_1567
VAR_0719,VAR_0812
VAR_0565,VAR_0730
VAR_0793,VAR_1563
VAR_0620,VAR_0623
VAR_0623,VAR_0625
VAR_0722,VAR_1551
VAR_0563,VAR_1388
VAR_0825,VAR_0836
VAR_0717,VAR_0877
VAR_1388,VAR_1533
VAR_0617,VAR_1534
VAR_0824,VAR_1533
VAR_0792,VAR_1162
VAR_0623,VAR_1570
VAR_0620,VAR_1570
VAR_0718,VAR_0723
VAR_0813,VAR_1549
VAR_0833,VAR_1566
VAR_0625,VAR_1572
VAR_0730,VAR_1552
VAR_0622,VAR_1547
VAR_1574,VAR_1577
VAR_0562,VAR_0623
VAR_0877,VAR_1428
VAR_0563,VAR_1534
VAR_0620,VAR_1427
VAR_0923,VAR_1387
VAR_0621,VAR_0824
VAR_1165,VAR_1548
VAR_0566,VAR_0824
VAR_1388,VAR_1570
VAR_1389,VAR_1574
VAR_0567,VAR_1165
VAR_0821,VAR_1537
VAR_0722,VAR_1557
VAR_0741,VAR_1566
VAR_0564,VAR_0723
VAR_0625,VAR_0792
VAR_1388,VAR_1534
VAR_0624,VAR_1571
VAR_0795,VAR_1163
VAR_0566,VAR_0836
VAR_1387,VAR_1388
VAR_0833,VAR_1561
VAR_0624,VAR_1566
VAR_0569,VAR_1386
VAR_1386,VAR_1554
VAR_0562,VAR_0624
VAR_0819,VAR_1386
VAR_1572,VAR_1574
VAR_0564,VAR_0793
VAR_0924,VAR_1165
VAR_0822,VAR_1540
VAR_0730,VAR_0830
VAR_0831,VAR_1547
VAR_0565,VAR_0625
VAR_1389,VAR_1545
VAR_0621,VAR_1539
VAR_0563,VAR_1544
VAR_0621,VAR_1543
VAR_0620,VAR_1549
VAR_0794,VAR_1572
VAR_0795,VAR_1164
VAR_0740,VAR_0795
VAR_0820,VAR_0831
VAR_0730,VAR_1544
VAR_0625,VAR_1547
VAR_0626,VAR_1168
VAR_1553,VAR_1572
VAR_0626,VAR_1553
VAR_0827,VAR_0828
VAR_0569,VAR_0793
VAR_0793,VAR_1532
VAR_0821,VAR_1539
VAR_0836,VAR_1572
VAR_0768,VAR_0812
VAR_0726,VAR_1544
VAR_0795,VAR_1547
VAR_0717,VAR_0831
VAR_0824,VAR_0924
VAR_0626,VAR_0813
VAR_0741,VAR_0792
VAR_0569,VAR_1564
VAR_0836,VAR_1389
VAR_0569,VAR_1388
VAR_0792,VAR_1544
VAR_0569,VAR_0821
VAR_1387,VAR_1572
VAR_1387,VAR_1552
VAR_0831,VAR_1164
VAR_1534,VAR_1543
VAR_0626,VAR_1548
VAR_0828,VAR_0847
VAR_0793,VAR_1535
VAR_0795,VAR_0816
VAR_1542,VAR_1566
VAR_1168,VAR_1577
VAR_1534,VAR_1577
VAR_1388,VAR_1549
VAR_0617,VAR_0822
VAR_0722,VAR_1162
VAR_0923,VAR_1388
VAR_0626,VAR_0924
VAR_0619,VAR_1543
VAR_1428,VAR_1547
VAR_0741,VAR_0795
VAR_0718,VAR_1577
VAR_0625,VAR_1549
VAR_0624,VAR_0722
VAR_1387,VAR_1559
VAR_1428,VAR_1572
VAR_0794,VAR_1535
VAR_0562,VAR_0563
VAR_1534,VAR_1544
VAR_0722,VAR_0819
VAR_0562,VAR_1547
VAR_0792,VAR_1564
VAR_0758,VAR_0793
VAR_0562,VAR_1549
VAR_0795,VAR_0833
VAR_1389,VAR_1565
VAR_0923,VAR_1567
VAR_0820,VAR_1567
VAR_0563,VAR_1561
VAR_0794,VAR_0818
VAR_0617,VAR_0626
VAR_0617,VAR_1574
VAR_1165,VAR_1572
VAR_0618,VAR_0619
VAR_0621,VAR_0723
VAR_0793,VAR_1577
VAR_0877,VAR_1543
VAR_0622,VAR_0877
VAR_1161,VAR_1567
VAR_1164,VAR_1569
VAR_0794,VAR_1557
VAR_0620,VAR_1167
VAR_0564,VAR_0814
VAR_0627,VAR_0723
VAR_1543,VAR_1562
VAR_0723,VAR_1428
VAR_1163,VAR_1561
VAR_1389,VAR_1562
VAR_0562,VAR_0836
VAR_0568,VAR_0723
VAR_1544,VAR_1548
VAR_0625,VAR_0626
VAR_1557,VAR_1572
VAR_0626,VAR_1546
VAR_0824,VAR_1165
VAR_0821,VAR_1386
VAR_1544,VAR_1566
VAR_1388,VAR_1389
VAR_0740,VAR_1389
VAR_0741,VAR_1387
VAR_0836,VAR_1161
VAR_0831,VAR_0834
VAR_0824,VAR_1544
VAR_0564,VAR_1569
VAR_0567,VAR_0621
VAR_0718,VAR_1386
VAR_0795,VAR_1574
VAR_0795,VAR_1389
VAR_0624,VAR_1549
VAR_0565,VAR_1534
VAR_0847,VAR_1562
VAR_0812,VAR_1572
VAR_0562,VAR_0831
VAR_0812,VAR_0820
VAR_0794,VAR_1563
VAR_0718,VAR_0794
VAR_0836,VAR_1427
VAR_0924,VAR_1561
VAR_0568,VAR_0792
VAR_0624,VAR_1570
VAR_0562,VAR_1571
VAR_0564,VAR_1386
VAR_0619,VAR_0831
VAR_0793,VAR_1544
VAR_1546,VAR_1557
VAR_0836,VAR_1162
VAR_0824,VAR_0836
VAR_0618,VAR_0624
VAR_0619,VAR_0620
VAR_0623,VAR_1167
VAR_0619,VAR_1165
VAR_0794,VAR_1548
VAR_0627,VAR_1548
VAR_1387,VAR_1542
VAR_0624,VAR_1562
VAR_0718,VAR_0793
VAR_0622,VAR_1566
VAR_1545,VAR_1546
VAR_0626,VAR_1386
VAR_0813,VAR_1568
VAR_0820,VAR_1388
VAR_0741,VAR_0812
VAR_0741,VAR_1389
VAR_1165,VAR_1534
VAR_0617,VAR_1389
VAR_0564,VAR_0621
VAR_0722,VAR_1545
VAR_0877,VAR_1553
VAR_0564,VAR_1164
VAR_0619,VAR_0627
VAR_0793,VAR_1164
VAR_0624,VAR_1389
VAR_1389,VAR_1558
VAR_0565,VAR_0812
VAR_0831,VAR_1553
VAR_0625,VAR_1567
VAR_0831,VAR_1542
VAR_0626,VAR_0726
VAR_0627,VAR_1538
VAR_1386,VAR_1553
VAR_0792,VAR_0821
VAR_0877,VAR_1168
VAR_0821,VAR_1577
VAR_0821,VAR_1557
VAR_0562,VAR_1563
VAR_0792,VAR_0924
VAR_0565,VAR_1388
VAR_0831,VAR_1166
VAR_0620,VAR_0821
VAR_0563,VAR_0726
VAR_0723,VAR_1557
VAR_1546,VAR_1568
VAR_0877,VAR_1554
VAR_0877,VAR_1534
VAR_0626,VAR_1533
VAR_0836,VAR_1547
VAR_0768,VAR_0877
VAR_0627,VAR_1388
VAR_0620,VAR_0792
VAR_0831,VAR_1558
VAR_0792,VAR_1568
VAR_0794,VAR_1167
VAR_0624,VAR_0718
VAR_0627,VAR_1533
VAR_0792,VAR_0828
VAR_0562,VAR_0812
VAR_0567,VAR_0793
VAR_0568,VAR_0624
VAR_1387,VAR_1562
VAR_0562,VAR_1564
VAR_1427,VAR_1549
VAR_1548,VAR_1568
VAR_1386,VAR_1428
VAR_0564,VAR_1577
VAR_0567,VAR_0722
VAR_0718,VAR_0813
VAR_1168,VAR_1386
VAR_0836,VAR_1540
VAR_0793,VAR_1558
VAR_0565,VAR_1565
VAR_0723,VAR_1563
VAR_0623,VAR_1533
VAR_0726,VAR_1538
VAR_0792,VAR_1563
VAR_0625,VAR_1569
VAR_0723,VAR_0795
VAR_0831,VAR_1386
VAR_0627,VAR_1166
VAR_0792,VAR_1539
VAR_0812,VAR_1563
VAR_0730,VAR_0828
VAR_0569,VAR_0623
VAR_1533,VAR_1566
VAR_0617,VAR_0792
VAR_1570,VAR_1571
VAR_1542,VAR_1574
VAR_0563,VAR_0824
VAR_0718,VAR_0814
VAR_1538,VAR_1565
VAR_0793,VAR_1557
VAR_0836,VAR_1569
VAR_0793,VAR_0822
VAR_0627,VAR_1386
VAR_1547,VAR_1568
VAR_0924,VAR_1386
VAR_0723,VAR_1165
VAR_0924,VAR_1574
VAR_0726,VAR_0813
VAR_0618,VAR_0723
VAR_1388,VAR_1538
VAR_0718,VAR_1565
VAR_1562,VAR_1570
VAR_1543,VAR_1571
VAR_1543,VAR_1567
VAR_0812,VAR_1546
VAR_1162,VAR_1567
VAR_0813,VAR_0820
VAR_0618,VAR_0792
VAR_0617,VAR_0795
VAR_0569,VAR_0723
VAR_0824,VAR_1543
VAR_1567,VAR_1570
VAR_1547,VAR_1561
VAR_1565,VAR_1577
VAR_1389,VAR_1534
VAR_0795,VAR_1563
VAR_0626,VAR_1563
VAR_1542,VAR_1572
VAR_0792,VAR_1537
VAR_0626,VAR_0822
VAR_0822,VAR_1427
VAR_0569,VAR_1577
VAR_1387,VAR_1545
VAR_1552,VAR_1566
VAR_0568,VAR_1547
VAR_0626,VAR_0793
VAR_0722,VAR_0833
VAR_0723,VAR_0758
VAR_1548,VAR_1577
VAR_0778,VAR_0814
VAR_0618,VAR_0924
VAR_0824,VAR_1542
VAR_0828,VAR_1428
VAR_1388,VAR_1577
VAR_0567,VAR_1562
VAR_0621,VAR_0792
VAR_0563,VAR_0621
VAR_0924,VAR_1564
VAR_0836,VAR_1554
VAR_0795,VAR_0822
VAR_0726,VAR_0833
VAR_0564,VAR_0847
VAR_0814,VAR_1562
VAR_0795,VAR_1557
VAR_0831,VAR_1549
VAR_0568,VAR_0828
VAR_1167,VAR_1389
VAR_1386,VAR_1572
VAR_0824,VAR_1556
VAR_0722,VAR_1535
VAR_0718,VAR_0822
VAR_0625,VAR_0836
VAR_0627,VAR_0836
VAR_0923,VAR_1548
VAR_0567,VAR_1569
VAR_1389,VAR_1553
VAR_0741,VAR_0821
VAR_0828,VAR_1165
VAR_0924,VAR_1533
VAR_0719,VAR_0814
VAR_0565,VAR_0726
VAR_1164,VAR_1571
VAR_0836,VAR_1553
VAR_0569,VAR_0836
VAR_0814,VAR_1549
VAR_1166,VAR_1544
VAR_1168,VAR_1546
VAR_0568,VAR_0821
VAR_0625,VAR_1168
VAR_0847,VAR_1544
VAR_0726,VAR_1427
VAR_0568,VAR_1549
VAR_0569,VAR_1547
VAR_0793,VAR_0923
VAR_0620,VAR_0722
VAR_1553,VAR_1567
VAR_1545,VAR_1561
VAR_1165,VAR_1549
VAR_0722,VAR_1562
VAR_0627,VAR_0813
VAR_0726,VAR_1570
VAR_1388,VAR_1556
VAR_1428,VAR_1566
VAR_0813,VAR_0924
VAR_0812,VAR_1428
VAR_0793,VAR_1562
VAR_1564,VAR_1568
VAR_0623,VAR_0624
VAR_1166,VAR_1543
VAR_0563,VAR_1389
VAR_0816,VAR_0877
VAR_1388,VAR_1532
VAR_0624,VAR_1577
VAR_0792,VAR_1163
VAR_0623,VAR_1571
VAR_0620,VAR_1577
VAR_0718,VAR_0722
VAR_0813,VAR_1546
VAR_1386,VAR_1548
VAR_0833,VAR_1567
VAR_0619,VAR_1572
VAR_1562,VAR_1566
VAR_0831,VAR_1557
VAR_0740,VAR_0831
VAR_0562,VAR_0877
VAR_0563,VAR_1533
VAR_0564,VAR_0795
VAR_0822,VAR_1546
VAR_0567,VAR_1166
VAR_0621,VAR_1165
VAR_0831,VAR_1546
VAR_0821,VAR_1534
VAR_0814,VAR_1389
VAR_0741,VAR_1567
VAR_0562,VAR_1533
VAR_0621,VAR_1545
VAR_0623,VAR_1387
VAR_0619,VAR_1567
VAR_0618,VAR_1387
VAR_0795,VAR_1162
VAR_0621,VAR_1558
VAR_1547,VAR_1574
VAR_0923,VAR_1565
VAR_0795,VAR_1532
VAR_1164,VAR_1534
VAR_0619,VAR_1542
VAR_0568,VAR_1389
VAR_0569,VAR_1387
VAR_0568,VAR_1567
VAR_0626,VAR_1166
VAR_0626,VAR_1559
VAR_1164,VAR_1562
VAR_0624,VAR_1427
VAR_0564,VAR_0792
VAR_0726,VAR_1163
VAR_0620,VAR_0924
VAR_0564,VAR_0618
VAR_0924,VAR_1164
VAR_0793,VAR_1538
VAR_0795,VAR_0819
VAR_0768,VAR_0814
VAR_1389,VAR_1544
VAR_1388,VAR_1544
VAR_0563,VAR_1545
VAR_0567,VAR_1546
VAR_0621,VAR_1542
VAR_0794,VAR_1571
VAR_0834,VAR_0836
VAR_0740,VAR_0794
VAR_0564,VAR_1534
VAR_0877,VAR_1574
VAR_0831,VAR_1539
VAR_0822,VAR_1562
VAR_0730,VAR_1545
VAR_0625,VAR_1546
VAR_0831,VAR_0847
VAR_1387,VAR_1554
VAR_0813,VAR_1161
VAR_0794,VAR_0815
VAR_0626,VAR_1552
VAR_0617,VAR_0619
VAR_0830,VAR_0831
VAR_1534,VAR_1549
VAR_0822,VAR_1563
VAR_0793,VAR_1533
VAR_0822,VAR_1548
VAR_0821,VAR_1540
VAR_0726,VAR_1569
VAR_0722,VAR_0741
VAR_0768,VAR_0813
VAR_0726,VAR_1543
VAR_0566,VAR_1389
VAR_0626,VAR_0812
VAR_0623,VAR_1547
VAR_0618,VAR_1543
VAR_1428,VAR_1549
VAR_0792,VAR_1386
VAR_0627,VAR_1558
VAR_0569,VAR_1389
VAR_0792,VAR_1545
VAR_0741,VAR_0793
VAR_1544,VAR_1561
VAR_1387,VAR_1540
VAR_1387,VAR_1553
VAR_0813,VAR_1168
VAR_1428,VAR_1571
VAR_0794,VAR_1533
VAR_0626,VAR_1549
VAR_1568,VAR_1569
VAR_1539,VAR_1571
VAR_0821,VAR_1549
VAR_0625,VAR_0923
VAR_1534,VAR_1574
VAR_0768,VAR_0836
VAR_0924,VAR_1549
VAR_0722,VAR_1165
VAR_0567,VAR_1548
VAR_1165,VAR_1574
VAR_0623,VAR_1540
VAR_1386,VAR_1537
VAR_1428,VAR_1546
VAR_0821,VAR_1428
VAR_1164,VAR_1547
VAR_1164,VAR_1564
VAR_1166,VAR_1567
VAR_1164,VAR_1563
VAR_0564,VAR_0812
VAR_1544,VAR_1568
VAR_0621,VAR_0812
VAR_0794,VAR_1534
VAR_0626,VAR_1562
VAR_0622,VAR_0624
VAR_0730,VAR_1168
VAR_1557,VAR_1574
VAR_1542,VAR_1561
VAR_0562,VAR_1546
VAR_0620,VAR_0813
VAR_0758,VAR_0794
VAR_1164,VAR_1427
VAR_0820,VAR_1564
VAR_0563,VAR_1562
VAR_0624,VAR_0923
VAR_0617,VAR_1577
VAR_0758,VAR_0821
VAR_0623,VAR_1549
VAR_0565,VAR_0836
VAR_0793,VAR_1574
VAR_0877,VAR_1544
VAR_1546,VAR_1558
VAR_0564,VAR_1563
VAR_0821,VAR_1427
VAR_0794,VAR_1556
VAR_0620,VAR_1168
VAR_0618,VAR_1164
VAR_0795,VAR_1545
VAR_0794,VAR_1547
VAR_0562,VAR_1427
VAR_1544,VAR_1549
VAR_0626,VAR_1547
VAR_0824,VAR_1162
VAR_0794,VAR_0923
VAR_0624,VAR_0821
VAR_0619,VAR_1566
VAR_0621,VAR_1428
VAR_0740,VAR_1388
VAR_0567,VAR_1567
VAR_0624,VAR_0924
VAR_0567,VAR_1388
VAR_0565,VAR_1546
VAR_0565,VAR_0821
VAR_0564,VAR_1568
VAR_0718,VAR_1387
VAR_0836,VAR_1163
VAR_0624,VAR_1557
VAR_0814,VAR_1571
VAR_0620,VAR_0718
VAR_0795,VAR_1388
VAR_0624,VAR_1546
VAR_1551,VAR_1567
VAR_0794,VAR_1564
VAR_0718,VAR_0795
VAR_0836,VAR_1428
VAR_0722,VAR_0924
VAR_0768,VAR_0794
VAR_1556,VAR_1572
VAR_0820,VAR_1386
VAR_0794,VAR_0820
VAR_0723,VAR_0815
VAR_0567,VAR_1543
VAR_0562,VAR_1572
VAR_0792,VAR_0815
VAR_0718,VAR_0836
VAR_0793,VAR_1543
VAR_1566,VAR_1574
VAR_0722,VAR_1543
VAR_0877,VAR_1559
VAR_0792,VAR_1574
VAR_1168,VAR_1548
VAR_0623,VAR_1166
VAR_0619,VAR_1166
VAR_0831,VAR_1163
VAR_0813,VAR_1562
VAR_0820,VAR_0821
VAR_0562,VAR_0821
VAR_0624,VAR_1563
VAR_0618,VAR_1570
VAR_0622,VAR_1567
VAR_0740,VAR_1561
VAR_0626,VAR_1387
VAR_1165,VAR_1564
VAR_0813,VAR_1569
VAR_0820,VAR_1389
VAR_0569,VAR_1561
VAR_0625,VAR_1534
VAR_0565,VAR_1386
VAR_0831,VAR_1165
VAR_1428,VAR_1577
VAR_1548,VAR_1567
VAR_0617,VAR_1544
VAR_0564,VAR_0620
VAR_0722,VAR_1544
VAR_0836,VAR_1387
VAR_0877,VAR_1552
VAR_1389,VAR_1554
VAR_0626,VAR_1535
VAR_0793,VAR_1167
VAR_0620,VAR_0794
VAR_0813,VAR_1553
VAR_0618,VAR_1577
VAR_0627,VAR_0718
VAR_0562,VAR_0814
VAR_0821,VAR_1574
VAR_0821,VAR_1558
VAR_1561,VAR_1569
VAR_0625,VAR_1533
VAR_1533,VAR_1534
VAR_0562,VAR_1562
VAR_0622,VAR_0813
VAR_0565,VAR_1389
VAR_1565,VAR_1574
VAR_0618,VAR_0824
VAR_0793,VAR_1387
VAR_1427,VAR_1543
VAR_1558,VAR_1567
VAR_0568,VAR_0877
VAR_0723,VAR_1543
VAR_0726,VAR_1551
VAR_0877,VAR_1537
VAR_1167,VAR_1566
VAR_1168,VAR_1388
VAR_0836,VAR_1546
VAR_0794,VAR_1389
VAR_0723,VAR_1569
VAR_1387,VAR_1549
VAR_0567,VAR_0836
VAR_0627,VAR_1563
VAR_0792,VAR_1569
VAR_0624,VAR_1168
VAR_1427,VAR_1574
VAR_0562,VAR_0813
VAR_0567,VAR_0794
VAR_0568,VAR_0627
VAR_1558,VAR_1565
VAR_1561,VAR_1562
VAR_0619,VAR_0923
VAR_0828,VAR_0831
VAR_0567,VAR_0821
VAR_0740,VAR_0821
VAR_0722,VAR_0820
VAR_0563,VAR_0822
VAR_1532,VAR_1567
VAR_0726,VAR_1558
VAR_0718,VAR_0812
VAR_1168,VAR_1387
VAR_0564,VAR_0730
VAR_0723,VAR_1163
VAR_0924,VAR_1577
VAR_0625,VAR_1568
VAR_0620,VAR_1568
VAR_0831,VAR_1387
VAR_0814,VAR_1535
VAR_0626,VAR_1570
VAR_1166,VAR_1570
VAR_1562,VAR_1571
VAR_0812,VAR_1562
VAR_0622,VAR_0828
VAR_1388,VAR_1547
VAR_0569,VAR_0620
VAR_0564,VAR_0569
VAR_1533,VAR_1567
VAR_0619,VAR_0924
VAR_0617,VAR_0793
VAR_0758,VAR_1388
VAR_0722,VAR_0829
VAR_0836,VAR_1568
VAR_0793,VAR_0821
VAR_0623,VAR_0793
VAR_0814,VAR_1568
VAR_0812,VAR_1557
VAR_0795,VAR_1569
VAR_0718,VAR_1566
VAR_1543,VAR_1572
VAR_0741,VAR_0831
VAR_0812,VAR_1549
VAR_1163,VAR_1386
VAR_0717,VAR_0822
VAR_0621,VAR_1552
VAR_0569,VAR_0722
VAR_1535,VAR_1566
VAR_0814,VAR_1552
VAR_0836,VAR_1168
VAR_0836,VAR_1561
VAR_0565,VAR_1574
VAR_0741,VAR_1571
VAR_1548,VAR_1552
VAR_1389,VAR_1535
VAR_0795,VAR_1562
VAR_0816,VAR_1388
VAR_0814,VAR_1546
VAR_1167,VAR_1549
VAR_1388,VAR_1427
VAR_1165,VAR_1428
VAR_0831,VAR_1548
VAR_1554,VAR_1572
VAR_1386,VAR_1564
VAR_1534,VAR_1561
VAR_1386,VAR_1574
VAR_0813,VAR_0828
VAR_1387,VAR_1544
VAR_1164,VAR_1574
VAR_1552,VAR_1561
VAR_0568,VAR_1546
VAR_0622,VAR_1386
VAR_0722,VAR_0834
VAR_0730,VAR_0741
VAR_0822,VAR_1539
VAR_0836,VAR_1566
VAR_0923,VAR_1546
VAR_0567,VAR_1563
VAR_1389,VAR_1552
VAR_1559,VAR_1572
VAR_1558,VAR_1572
VAR_1562,VAR_1565
VAR_0828,VAR_1164
VAR_0566,VAR_1162
VAR_0730,VAR_0836
VAR_0792,VAR_1577
VAR_0621,VAR_0625
VAR_0740,VAR_1566
VAR_1547,VAR_1552
VAR_1553,VAR_1561
VAR_0814,VAR_1565
VAR_0795,VAR_1554
VAR_1162,VAR_1388
VAR_0722,VAR_1532
VAR_0793,VAR_0815
VAR_0820,VAR_0822
VAR_1553,VAR_1566
VAR_1538,VAR_1571
VAR_0619,VAR_0822
VAR_1564,VAR_1571
VAR_0923,VAR_1549
VAR_0564,VAR_0824
VAR_1548,VAR_1570
VAR_0741,VAR_0822
VAR_0625,VAR_1428
VAR_0758,VAR_0836
VAR_1535,VAR_1548
VAR_0620,VAR_0626
VAR_0814,VAR_1548
VAR_0564,VAR_1549
VAR_0822,VAR_0924
VAR_0726,VAR_0758
VAR_0620,VAR_1388
VAR_0627,VAR_1577
VAR_0625,VAR_0718
VAR_0741,VAR_0877
VAR_0623,VAR_1577
VAR_0847,VAR_1543
VAR_1386,VAR_1542
VAR_0568,VAR_1548
VAR_0622,VAR_1388
VAR_1533,VAR_1544
VAR_0822,VAR_1167
VAR_0619,VAR_1533
VAR_1554,VAR_1561
VAR_1533,VAR_1549
VAR_0566,VAR_0821
VAR_1388,VAR_1551
VAR_1428,VAR_1565
VAR_1535,VAR_1572
VAR_0820,VAR_1571
VAR_0793,VAR_1565
VAR_1389,VAR_1549
VAR_0722,VAR_1552
VAR_0618,VAR_1563
VAR_0619,VAR_1561
VAR_1552,VAR_1571
VAR_0813,VAR_1547
VAR_0795,VAR_1534
VAR_1386,VAR_1549
VAR_0625,VAR_1574
VAR_0625,VAR_0822
VAR_0568,VAR_1561
VAR_0625,VAR_1389
VAR_0621,VAR_0923
VAR_0836,VAR_1537
VAR_0562,VAR_0621
VAR_0619,VAR_1534
VAR_0819,VAR_0831
VAR_0564,VAR_0794
VAR_0569,VAR_0619
VAR_0726,VAR_1165
VAR_0821,VAR_1569
VAR_0822,VAR_1547
VAR_1389,VAR_1564
VAR_1561,VAR_1574
VAR_0821,VAR_1535
VAR_0792,VAR_1389
VAR_0563,VAR_1543
VAR_0741,VAR_1564
VAR_0562,VAR_1534
VAR_0621,VAR_1544
VAR_0620,VAR_1386
VAR_0623,VAR_1386
VAR_0619,VAR_1568
VAR_0618,VAR_1386
VAR_0619,VAR_1386
VAR_0621,VAR_1559
VAR_1543,VAR_1561
VAR_1166,VAR_1547
VAR_0795,VAR_1533
VAR_0831,VAR_1537
VAR_1389,VAR_1428
VAR_0568,VAR_1388
VAR_0568,VAR_1566
VAR_0622,VAR_1548
VAR_0626,VAR_1167
VAR_0794,VAR_0816
VAR_0626,VAR_1558
VAR_0726,VAR_0795
VAR_0723,VAR_1538
VAR_1557,VAR_1565
VAR_0620,VAR_0923
VAR_0564,VAR_0619
VAR_1544,VAR_1574
VAR_0793,VAR_1539
VAR_0833,VAR_0836
VAR_0726,VAR_1563
VAR_0813,VAR_0819
VAR_0565,VAR_0623
VAR_1567,VAR_1569
VAR_1389,VAR_1547
VAR_1388,VAR_1545
VAR_0567,VAR_1547
VAR_0719,VAR_0877
VAR_0794,VAR_1570
VAR_0824,VAR_0828
VAR_0726,VAR_1168
VAR_0831,VAR_1538
VAR_0622,VAR_1572
VAR_0569,VAR_0824
VAR_1533,VAR_1574
VAR_0813,VAR_1162
VAR_0830,VAR_0836
VAR_0794,VAR_1427
VAR_1534,VAR_1548
VAR_0569,VAR_1166
VAR_1388,VAR_1571
VAR_0822,VAR_1549
VAR_0821,VAR_1547
VAR_0726,VAR_1568
VAR_0620,VAR_0814
VAR_0836,VAR_1570
VAR_1534,VAR_1572
VAR_0722,VAR_1570
VAR_0795,VAR_0828
VAR_0566,VAR_1388
VAR_0620,VAR_1546
VAR_0623,VAR_1546
VAR_0618,VAR_1542
VAR_0619,VAR_1546
VAR_1428,VAR_1548
VAR_0568,VAR_0836
VAR_1386,VAR_1539
VAR_0821,VAR_1389
VAR_1164,VAR_1565
VAR_0792,VAR_1546
VAR_0622,VAR_0723
VAR_1387,VAR_1570
VAR_0621,VAR_0814
VAR_0626,VAR_1568
VAR_0619,VAR_0812
VAR_0567,VAR_0619
VAR_0821,VAR_1548
VAR_0795,VAR_0924
VAR_0717,VAR_0814
VAR_0924,VAR_1548
VAR_0563,VAR_1564
VAR_0722,VAR_1164
VAR_0567,VAR_1549
VAR_0564,VAR_1547
VAR_0621,VAR_0726
VAR_0564,VAR_1565
VAR_0718,VAR_1548
VAR_1547,VAR_1549
VAR_1166,VAR_1564
VAR_0831,VAR_1568
VAR_0564,VAR_0813
VAR_1544,VAR_1569
VAR_0625,VAR_0722
VAR_0621,VAR_0813
VAR_0624,VAR_1533
VAR_0562,VAR_0565
VAR_0568,VAR_0726
VAR_0622,VAR_0625
VAR_1388,VAR_1535
VAR_0563,VAR_1569
VAR_1557,VAR_1577
VAR_0924,VAR_1567
VAR_0620,VAR_0812
VAR_0741,VAR_0836
VAR_0847,VAR_1165
VAR_0758,VAR_0795
VAR_0795,VAR_0923
VAR_0624,VAR_1572
VAR_0923,VAR_1561
VAR_0741,VAR_1548
VAR_0821,VAR_1168
VAR_0617,VAR_0624
VAR_0564,VAR_1548
VAR_0623,VAR_1548
VAR_0619,VAR_1548
VAR_0877,VAR_1545
VAR_0564,VAR_1562
VAR_1161,VAR_1565
VAR_0627,VAR_1557
VAR_0623,VAR_0718
VAR_0621,VAR_1577
VAR_0619,VAR_0718
VAR_0795,VAR_1544
VAR_0794,VAR_1544
VAR_0624,VAR_1534
VAR_1551,VAR_1561
VAR_0719,VAR_0795
VAR_0722,VAR_0816
VAR_0824,VAR_1163
VAR_0821,VAR_1388
VAR_0836,VAR_0924
VAR_1164,VAR_1544
VAR_1563,VAR_1565
VAR_0924,VAR_1566
VAR_0562,VAR_1574
VAR_0567,VAR_1389
VAR_0565,VAR_1547
VAR_0793,VAR_1549
VAR_0565,VAR_0822
VAR_0567,VAR_0623
VAR_0718,VAR_1388
VAR_0722,VAR_1549
VAR_0623,VAR_1168
VAR_0619,VAR_1168
VAR_0624,VAR_1547
VAR_1543,VAR_1569
VAR_1166,VAR_1549
VAR_0812,VAR_0822
VAR_0794,VAR_1565
VAR_0792,VAR_0847
VAR_0820,VAR_1387
VAR_0794,VAR_0821
VAR_0795,VAR_1428
VAR_1387,VAR_1539
VAR_0794,VAR_0924
VAR_0564,VAR_1388
VAR_0622,VAR_0792
VAR_0793,VAR_1542
VAR_1563,VAR_1571
VAR_1566,VAR_1577
VAR_0620,VAR_1535
VAR_0877,VAR_1558
VAR_1388,VAR_1568
VAR_0618,VAR_0622
VAR_0619,VAR_0622
VAR_1168,VAR_1549
VAR_1168,VAR_1566
VAR_0619,VAR_1167
VAR_0741,VAR_1547
VAR_0624,VAR_1564
VAR_0618,VAR_1571
VAR_0623,VAR_0836
VAR_0622,VAR_0730
VAR_0822,VAR_1569
VAR_0722,VAR_1427
VAR_0626,VAR_0723
VAR_0624,VAR_0792
VAR_1428,VAR_1534
VAR_0824,VAR_1574
VAR_0569,VAR_1566
VAR_0623,VAR_0741
VAR_0821,VAR_1572
VAR_0821,VAR_1552
VAR_0565,VAR_1387
VAR_1535,VAR_1561
VAR_0793,VAR_1389
VAR_1543,VAR_1548
VAR_0563,VAR_0723
VAR_0564,VAR_0623
VAR_0877,VAR_1551
VAR_0564,VAR_1166
VAR_0877,VAR_1539
VAR_0626,VAR_1534
VAR_0793,VAR_1166
VAR_1164,VAR_1543
VAR_0627,VAR_1547
VAR_0620,VAR_0795
VAR_1533,VAR_1547
VAR_1389,VAR_1538
VAR_0569,VAR_1534
VAR_0813,VAR_1552
VAR_0627,VAR_1565
VAR_0723,VAR_0741
VAR_0831,VAR_1540
VAR_1166,VAR_1534
VAR_0568,VAR_0621
VAR_0821,VAR_1559
VAR_1561,VAR_1568
VAR_0562,VAR_1561
VAR_0819,VAR_0824
VAR_0627,VAR_0822
VAR_0793,VAR_1386
VAR_0831,VAR_1388
VAR_1427,VAR_1544
VAR_1558,VAR_1566
VAR_0564,VAR_1572
VAR_0723,VAR_1544
VAR_0726,VAR_1552
VAR_1168,VAR_1389
VAR_0836,VAR_1545
VAR_0567,VAR_0831
VAR_0814,VAR_1551
VAR_0627,VAR_1562
VAR_1167,VAR_1572
VAR_0726,VAR_0923
VAR_0794,VAR_1161
VAR_0792,VAR_1543
VAR_0814,VAR_1534
VAR_1549,VAR_1568
VAR_1549,VAR_1552
VAR_1427,VAR_1577
VAR_1388,VAR_1546
VAR_0567,VAR_0795
VAR_0568,VAR_0626
VAR_0822,VAR_1574
VAR_1387,VAR_1564
VAR_1165,VAR_1569
VAR_1388,VAR_1539
VAR_1549,VAR_1570
VAR_0569,VAR_0877
VAR_0722,VAR_1387
VAR_0726,VAR_1559
VAR_0626,VAR_0741
VAR_0792,VAR_1570
VAR_0814,VAR_1558
VAR_0726,VAR_0816
VAR_0620,VAR_1569
VAR_0626,VAR_1565
VAR_1386,VAR_1535
VAR_0627,VAR_1168
VAR_0821,VAR_0836
VAR_0821,VAR_1167
VAR_1388,VAR_1428
VAR_0625,VAR_1558
VAR_0566,VAR_0877
VAR_0569,VAR_0621
VAR_0719,VAR_0836
VAR_0812,VAR_1552
VAR_1163,VAR_1388
VAR_1570,VAR_1577
VAR_1386,VAR_1427
VAR_0567,VAR_1574
VAR_0563,VAR_1574
VAR_1538,VAR_1567
VAR_0793,VAR_1551
VAR_1165,VAR_1547
VAR_0793,VAR_0820
VAR_0623,VAR_0792
VAR_0623,VAR_1538
VAR_0621,VAR_0718
VAR_0619,VAR_1557
VAR_0795,VAR_1568
VAR_1542,VAR_1577
VAR_1545,VAR_1571
VAR_1428,VAR_1561
VAR_0718,VAR_1567
VAR_0821,VAR_0923
VAR_0812,VAR_1548
VAR_0562,VAR_0792
VAR_1162,VAR_1565
VAR_0618,VAR_1534
VAR_0795,VAR_0821
VAR_1534,VAR_1567
VAR_0826,VAR_0831
VAR_1427,VAR_1562
VAR_0814,VAR_1387
VAR_0565,VAR_1577
VAR_0563,VAR_0730
VAR_1547,VAR_1567
VAR_1557,VAR_1567
VAR_0563,VAR_0624
VAR_0619,VAR_0621
VAR_0621,VAR_0623
VAR_0814,VAR_1545
VAR_0619,VAR_0722
VAR_0563,VAR_1386
VAR_1547,VAR_1558
VAR_0626,VAR_0824
VAR_0795,VAR_1552
VAR_0722,VAR_0742
VAR_0626,VAR_0718
VAR_0813,VAR_1389
VAR_1386,VAR_1577
VAR_0618,VAR_1533
VAR_1162,VAR_1386
VAR_0740,VAR_0822
VAR_0813,VAR_1574
VAR_0622,VAR_1387
VAR_0722,VAR_1538
VAR_0562,VAR_0722
VAR_0627,VAR_0831
VAR_0822,VAR_1538
VAR_1165,VAR_1387
VAR_0923,VAR_1547
VAR_0567,VAR_1564
VAR_0564,VAR_0822
VAR_0741,VAR_0824
VAR_0563,VAR_0623
VAR_0565,VAR_0723
VAR_0836,VAR_1556
VAR_0621,VAR_0624
VAR_0618,VAR_1389
VAR_0566,VAR_0723
VAR_0814,VAR_1564
VAR_0847,VAR_1549
VAR_0824,VAR_1554
VAR_1386,VAR_1544
VAR_0619,VAR_0792
VAR_0819,VAR_1388
VAR_0730,VAR_1567
VAR_0722,VAR_1533
VAR_0565,VAR_0795
VAR_0924,VAR_1547
VAR_0726,VAR_1577
VAR_0730,VAR_0833
VAR_0758,VAR_0831
VAR_1535,VAR_1549
VAR_0620,VAR_0627
VAR_0833,VAR_1388
VAR_0740,VAR_1565
VAR_0562,VAR_1428
VAR_0620,VAR_1389
VAR_0618,VAR_1569
VAR_0792,VAR_1554
VAR_0792,VAR_1166
VAR_0623,VAR_1574
VAR_0567,VAR_1427
VAR_1386,VAR_1543
VAR_1389,VAR_1427
VAR_1552,VAR_1572
VAR_0622,VAR_1389
VAR_0625,VAR_1387
VAR_0824,VAR_0825
VAR_1549,VAR_1557
VAR_0722,VAR_0827
VAR_1428,VAR_1533
VAR_1165,VAR_1389
VAR_1164,VAR_1165
VAR_0563,VAR_1164
VAR_0821,VAR_1563
VAR_1388,VAR_1574
VAR_1389,VAR_1570
VAR_1428,VAR_1564
VAR_0562,VAR_0795
VAR_0793,VAR_1564
VAR_0623,VAR_0626
VAR_0618,VAR_1165
VAR_1389,VAR_1548
VAR_0722,VAR_1553
VAR_0825,VAR_0831
VAR_0795,VAR_1542
VAR_0618,VAR_1562
VAR_0619,VAR_1562
VAR_0792,VAR_1161
VAR_0625,VAR_1167
VAR_0923,VAR_1389
VAR_0813,VAR_1544
VAR_0795,VAR_1535
VAR_0833,VAR_1565
VAR_0569,VAR_1548
VAR_1556,VAR_1567
VAR_0625,VAR_1388
VAR_1386,VAR_1568
VAR_1567,VAR_1574
VAR_0621,VAR_0924
VAR_0836,VAR_1534
VAR_0562,VAR_0620
VAR_0564,VAR_1574
VAR_0794,VAR_1428
VAR_0722,VAR_0847
VAR_0569,VAR_0618
VAR_0621,VAR_0821
VAR_0726,VAR_1164
VAR_0821,VAR_1568
VAR_0627,VAR_0924
VAR_1389,VAR_1577
VAR_1388,VAR_1559
VAR_1535,VAR_1547
VAR_0621,VAR_1565
VAR_0741,VAR_1565
VAR_0564,VAR_0726
VAR_0621,VAR_1547
VAR_0620,VAR_1387
VAR_0619,VAR_1569
VAR_0792,VAR_1168
VAR_0619,VAR_1387
VAR_0622,VAR_1549
VAR_0625,VAR_1543
VAR_1533,VAR_1572
VAR_0626,VAR_1164
VAR_0813,VAR_1164
VAR_1572,VAR_1577
VAR_0562,VAR_1387
VAR_0924,VAR_1166
VAR_0726,VAR_1562
VAR_0563,VAR_0831
VAR_1389,VAR_1568
VAR_0565,VAR_0620
VAR_1567,VAR_1568
VAR_1389,VAR_1546
VAR_1388,VAR_1542
VAR_0567,VAR_1544
VAR_0820,VAR_0836
VAR_0626,VAR_0831
VAR_0792,VAR_1548
VAR_0625,VAR_1548
VAR_0826,VAR_0836
VAR_0813,VAR_1163
VAR_1164,VAR_1548
VAR_1553,VAR_1565
VAR_0566,VAR_0795
VAR_1543,VAR_1566
VAR_0820,VAR_1572
VAR_0821,VAR_1546
VAR_0795,VAR_0812
VAR_0563,VAR_0836
VAR_0622,VAR_0831
VAR_0717,VAR_0812
VAR_0836,VAR_1571
VAR_0621,VAR_1533
VAR_0723,VAR_1574
VAR_1165,VAR_1561
VAR_0626,VAR_0814
VAR_0718,VAR_0877
VAR_0618,VAR_1545
VAR_0619,VAR_1547
VAR_0824,VAR_1549
VAR_0877,VAR_1548
VAR_0718,VAR_1546
VAR_1166,VAR_1562
VAR_0831,VAR_1562
VAR_0792,VAR_1547
VAR_0795,VAR_1549
VAR_0622,VAR_0722
VAR_1387,VAR_1571
VAR_0824,VAR_1545
VAR_0626,VAR_1569
VAR_0622,VAR_0623
VAR_0730,VAR_1167
VAR_0562,VAR_1389
VAR_0624,VAR_0847
VAR_0567,VAR_0618
VAR_0563,VAR_0813
VAR_1164,VAR_1428
VAR_1168,VAR_1574
VAR_0563,VAR_1565
VAR_0722,VAR_1167
VAR_0624,VAR_0814
VAR_0564,VAR_1546
VAR_0564,VAR_1564
VAR_0718,VAR_1549
VAR_1558,VAR_1574
VAR_1547,VAR_1548
VAR_0718,VAR_1574
VAR_0831,VAR_1569
VAR_0818,VAR_0836
VAR_0831,VAR_1552
VAR_1554,VAR_1567
VAR_0625,VAR_0723
VAR_1163,VAR_1565
VAR_1569,VAR_1574
VAR_0626,VAR_1542
VAR_0624,VAR_0824
VAR_1427,VAR_1561
VAR_0795,VAR_1427
VAR_0831,VAR_1543
VAR_0723,VAR_0819
VAR_0621,VAR_1427
VAR_0617,VAR_1387
VAR_1168,VAR_1567
VAR_0741,VAR_1549
VAR_0836,VAR_1165
VAR_0821,VAR_1165
VAR_0619,VAR_1549
VAR_0793,VAR_1572
VAR_0877,VAR_1546
VAR_0795,VAR_1570
VAR_0624,VAR_1558
VAR_0621,VAR_1570
VAR_0792,VAR_1387
VAR_0627,VAR_0726
VAR_0794,VAR_1545
VAR_1166,VAR_1548
VAR_0722,VAR_0828
VAR_0722,VAR_0768
VAR_0624,VAR_0741
VAR_0847,VAR_1577
VAR_0824,VAR_1427
VAR_0565,VAR_1548
VAR_0793,VAR_1548
VAR_1563,VAR_1570
VAR_0819,VAR_1389
VAR_1542,VAR_1567
VAR_0567,VAR_0624
VAR_0718,VAR_1389
VAR_0740,VAR_1163
VAR_0722,VAR_1548
VAR_1388,VAR_1562
VAR_0795,VAR_1577
VAR_1168,VAR_1565
VAR_1387,VAR_1537
VAR_0624,VAR_1544
VAR_0722,VAR_1163
VAR_0824,VAR_1539
VAR_0794,VAR_1566
VAR_0822,VAR_1568
VAR_1544,VAR_1572
VAR_0816,VAR_0821
VAR_0824,VAR_1428
VAR_1565,VAR_1572
VAR_1535,VAR_1567
VAR_1543,VAR_1549
VAR_0813,VAR_0833
VAR_0620,VAR_1534
VAR_0564,VAR_0625
VAR_0824,VAR_0833
VAR_1388,VAR_1569
VAR_0618,VAR_0621
VAR_0619,VAR_0623
VAR_0827,VAR_0836
VAR_0795,VAR_1387
VAR_1546,VAR_1567
VAR_1533,VAR_1546
VAR_0813,VAR_1554
VAR_0624,VAR_1565
VAR_0618,VAR_1572
VAR_0622,VAR_1565
VAR_0624,VAR_1164
VAR_0626,VAR_0722
VAR_0624,VAR_0793
VAR_0824,VAR_1577
VAR_0726,VAR_0877
VAR_0569,VAR_1567
VAR_0821,VAR_1553
VAR_0618,VAR_0821
VAR_0793,VAR_1388
VAR_1166,VAR_1561
VAR_0563,VAR_0722
VAR_0723,VAR_1553
VAR_0617,VAR_1546
VAR_1164,VAR_1561
VAR_0814,VAR_1532
VAR_0877,VAR_1538
VAR_1568,VAR_1571
VAR_0827,VAR_0831
VAR_0793,VAR_1161
VAR_0627,VAR_1546
VAR_1545,VAR_1566
VAR_1546,VAR_1577
VAR_0924,VAR_1571
VAR_1164,VAR_1545
VAR_0624,VAR_0723
VAR_0619,VAR_0847
VAR_1549,VAR_1569
VAR_0794,VAR_1543
VAR_1562,VAR_1577
VAR_0627,VAR_1537
VAR_1427,VAR_1571
VAR_1568,VAR_1574
VAR_0818,VAR_1386
VAR_0568,VAR_0620
VAR_0815,VAR_0831
VAR_0627,VAR_0821
VAR_0620,VAR_0824
VAR_1387,VAR_1558
VAR_0567,VAR_0824
VAR_0566,VAR_1561
VAR_0567,VAR_0726
VAR_0723,VAR_1545
VAR_0726,VAR_1553
VAR_0565,VAR_1166
VAR_0836,VAR_1544
VAR_0620,VAR_0793
VAR_0877,VAR_1562
VAR_0726,VAR_1534
VAR_0794,VAR_1162
VAR_1161,VAR_1571
VAR_0627,VAR_0793
VAR_0730,VAR_0824
VAR_0562,VAR_1569
VAR_0813,VAR_1535
VAR_0824,VAR_1562
VAR_1559,VAR_1566
VAR_0722,VAR_0826
VAR_0722,VAR_0818
VAR_0563,VAR_1572
VAR_0795,VAR_0831
VAR_0814,VAR_1559
VAR_1386,VAR_1534
VAR_1167,VAR_1387
VAR_1545,VAR_1577
VAR_0626,VAR_1572
VAR_0569,VAR_0626
VAR_0564,VAR_0567
VAR_1533,VAR_1561
VAR_0824,VAR_1568
VAR_0812,VAR_1553
VAR_0831,VAR_1572
VAR_1387,VAR_1543
VAR_0827,VAR_0877
VAR_1538,VAR_1566
VAR_0793,VAR_1552
VAR_1165,VAR_1546
VAR_0565,VAR_1571
VAR_0623,VAR_0795
VAR_0569,VAR_0828
VAR_0723,VAR_1168
VAR_0924,VAR_1534
VAR_0623,VAR_1563
VAR_0618,VAR_0726
VAR_1166,VAR_1388
VAR_0792,VAR_1533
VAR_1166,VAR_1571
VAR_0812,VAR_1569
VAR_0622,VAR_0821
VAR_0795,VAR_1558
VAR_1543,VAR_1574
VAR_0567,VAR_0877
VAR_0824,VAR_1563
VAR_0568,VAR_0730
VAR_0831,VAR_1162
VAR_0795,VAR_0820
VAR_1534,VAR_1566
VAR_0730,VAR_0877
VAR_0822,VAR_1537
VAR_1567,VAR_1577
VAR_0836,VAR_1563
VAR_0793,VAR_0828
VAR_1547,VAR_1566
VAR_0563,VAR_0625
VAR_0730,VAR_0923
VAR_1389,VAR_1537
VAR_0621,VAR_1167
VAR_0726,VAR_0819
VAR_0836,VAR_1558
VAR_0621,VAR_0622
VAR_1167,VAR_1547
VAR_1161,VAR_1389
VAR_0563,VAR_0564
VAR_0795,VAR_1553
VAR_0567,VAR_1428
VAR_0814,VAR_0816
VAR_1162,VAR_1387
VAR_0923,VAR_1572
VAR_0722,VAR_1539
VAR_0793,VAR_0818
VAR_0562,VAR_0723
VAR_0626,VAR_1427
VAR_1571,VAR_1574
VAR_1165,VAR_1386
VAR_0567,VAR_1565
VAR_0564,VAR_0821
VAR_0722,VAR_1569
VAR_1428,VAR_1569
VAR_0565,VAR_0722
VAR_0836,VAR_1557
VAR_0793,VAR_1569
VAR_0833,VAR_1386
VAR_0621,VAR_1389
VAR_0627,VAR_1572
VAR_0567,VAR_0924
VAR_0568,VAR_1577
VAR_1558,VAR_1577
VAR_0623,VAR_1569
VAR_1548,VAR_1569
VAR_0847,VAR_1548
VAR_0824,VAR_1553
VAR_1386,VAR_1545
VAR_0619,VAR_0793
VAR_0730,VAR_1574
VAR_0813,VAR_0816
VAR_1167,VAR_1548
VAR_0565,VAR_0792
VAR_0718,VAR_0821
VAR_0623,VAR_0822
VAR_0821,VAR_1565
VAR_0726,VAR_1574
VAR_0626,VAR_1428
VAR_1428,VAR_1562
VAR_0562,VAR_0793
VAR_0618,VAR_1557
VAR_0833,VAR_1389
VAR_0792,VAR_1538
VAR_0795,VAR_1543
VAR_0622,VAR_0794
VAR_1549,VAR_1558
VAR_0618,VAR_1568
VAR_0792,VAR_1553
VAR_0792,VAR_1167
VAR_0814,VAR_0818
VAR_1556,VAR_1561
VAR_0625,VAR_1386
VAR_0835,VAR_0836
VAR_0836,VAR_1532
VAR_0822,VAR_1161
VAR_1165,VAR_1388
VAR_0821,VAR_1562
VAR_1389,VAR_1571
VAR_1388,VAR_1553
VAR_0569,VAR_1571
VAR_1535,VAR_1574
VAR_0621,VAR_1563
VAR_0722,VAR_1554
VAR_0625,VAR_0795
VAR_0620,VAR_0726
VAR_0621,VAR_1549
VAR_0619,VAR_1563
VAR_0828,VAR_0923
VAR_0625,VAR_1166
VAR_0620,VAR_1574
VAR_0813,VAR_1545
VAR_0625,VAR_0824
VAR_1162,VAR_1572
VAR_0626,VAR_1162
VAR_0836,VAR_1535
VAR_0562,VAR_0627
VAR_0626,VAR_0627
VAR_0822,VAR_1552
VAR_0621,VAR_0820
VAR_0625,VAR_0924
VAR_0564,VAR_1389
VAR_0822,VAR_1545
VAR_1388,VAR_1558
VAR_1389,VAR_1569
VAR_0565,VAR_0626
VAR_0821,VAR_1533
VAR_0824,VAR_1164
VAR_1389,VAR_1540
VAR_0924,VAR_1389
VAR_0621,VAR_1546
VAR_0626,VAR_0819
VAR_0795,VAR_1167
VAR_0621,VAR_1557
VAR_1547,VAR_1577
VAR_0877,VAR_1570
VAR_0758,VAR_0877
VAR_0625,VAR_1542
VAR_0836,VAR_1549
VAR_1533,VAR_1571
VAR_0626,VAR_1165
VAR_0625,VAR_0847
VAR_0813,VAR_1165
VAR_0831,VAR_1554
VAR_1386,VAR_1533
VAR_0624,VAR_1428
VAR_0619,VAR_1427
VAR_0620,VAR_1428
VAR_0568,VAR_0618
VAR_0562,VAR_1386
VAR_1389,VAR_1557
VAR_0792,VAR_1572
VAR_0565,VAR_0621
VAR_0836,VAR_1577
VAR_0726,VAR_1547
VAR_1388,VAR_1543
VAR_0563,VAR_1548
VAR_1165,VAR_1562
VAR_0619,VAR_0814
VAR_0563,VAR_0619
VAR_0824,VAR_0923
VAR_0623,VAR_1389
VAR_0795,VAR_1168
VAR_0824,VAR_1548
VAR_0564,VAR_1533
VAR_1166,VAR_1568
VAR_0792,VAR_1549
VAR_1540,VAR_1567
VAR_1387,VAR_1577
VAR_1386,VAR_1559
VAR_1387,VAR_1557
VAR_1164,VAR_1570
VAR_0626,VAR_1557
VAR_0562,VAR_0569
VAR_1388,VAR_1537
VAR_0723,VAR_1533
VAR_0566,VAR_0794
VAR_0924,VAR_1565
VAR_0821,VAR_1545
VAR_0795,VAR_0813
VAR_0742,VAR_0836
VAR_0624,VAR_1574
VAR_0621,VAR_0741
VAR_0621,VAR_1534
VAR_0723,VAR_1577
VAR_0722,VAR_1161
VAR_0815,VAR_0877
VAR_0620,VAR_1544
VAR_0623,VAR_1544
VAR_0618,VAR_1544
VAR_0619,VAR_1544
VAR_0877,VAR_1549
VAR_0718,VAR_1547
VAR_0718,VAR_1572
VAR_0831,VAR_1563
VAR_0793,VAR_1427
VAR_0792,VAR_1540
VAR_0795,VAR_1548
VAR_0824,VAR_1546
VAR_0562,VAR_0618
VAR_0624,VAR_1538
VAR_1544,VAR_1546
VAR_1534,VAR_1547
VAR_0730,VAR_1164
VAR_0820,VAR_0877
VAR_0562,VAR_1388
VAR_0619,VAR_0741
VAR_0742,VAR_0831
VAR_1427,VAR_1567
VAR_0923,VAR_1564
VAR_0565,VAR_0619
VAR_0726,VAR_1549
VAR_0567,VAR_0620
VAR_0563,VAR_1566
VAR_0722,VAR_1166
VAR_0624,VAR_0813
VAR_0828,VAR_0924
VAR_1165,VAR_1577
VAR_1428,VAR_1543
VAR_0564,VAR_1567
VAR_1558,VAR_1561
VAR_0569,VAR_1549
VAR_0620,VAR_1164
VAR_1554,VAR_1566
VAR_1543,VAR_1565
VAR_0794,VAR_1539
VAR_0569,VAR_0730
VAR_0719,VAR_0792
VAR_1163,VAR_1389
VAR_0793,VAR_0833
VAR_1557,VAR_1571
VAR_0562,VAR_1543
VAR_0626,VAR_1543
VAR_0824,VAR_1166
VAR_1386,VAR_1569
VAR_1386,VAR_1557
VAR_1569,VAR_1577
VAR_0794,VAR_1540
VAR_0836,VAR_1164
VAR_0819,VAR_1387
VAR_0877,VAR_1547
VAR_0566,VAR_0626
VAR_0564,VAR_0836
VAR_0795,VAR_1571
VAR_0617,VAR_0813
VAR_0621,VAR_1571
VAR_0795,VAR_1546
VAR_0831,VAR_1168
VAR_1165,VAR_1544
VAR_0624,VAR_1568
VAR_1543,VAR_1544
VAR_0562,VAR_1548
VAR_0626,VAR_1388
VAR_0824,VAR_1161
VAR_1427,VAR_1569
VAR_0618,VAR_1428
VAR_1563,VAR_1567
VAR_0821,VAR_1163
VAR_0792,VAR_0819
VAR_0565,VAR_1549
VAR_0619,VAR_1574
VAR_0793,VAR_1547
VAR_0565,VAR_0824
VAR_1546,VAR_1552
VAR_0567,VAR_0625
VAR_0740,VAR_1162
VAR_0726,VAR_1167
VAR_1388,VAR_1563
VAR_1387,VAR_1534
VAR_0624,VAR_1545
VAR_0877,VAR_1167
VAR_1162,VAR_1389
VAR_0717,VAR_0794
VAR_0722,VAR_0923
VAR_0824,VAR_1168
VAR_1166,VAR_1538
VAR_0812,VAR_1532
VAR_0723,VAR_0816
VAR_1548,VAR_1561
VAR_0924,VAR_1569
VAR_0792,VAR_0816
VAR_0793,VAR_1540
VAR_0723,VAR_1559
VAR_0620,VAR_1533
VAR_0564,VAR_0624
VAR_0722,VAR_1540
VAR_0723,VAR_1548
VAR_0618,VAR_0620
VAR_0626,VAR_1539
VAR_1168,VAR_1547
VAR_0623,VAR_1557
VAR_0795,VAR_1386
VAR_0820,VAR_0824
VAR_0813,VAR_1557
VAR_0562,VAR_0822
VAR_0619,VAR_1571
VAR_0831,VAR_1556
VAR_1545,VAR_1548
VAR_0792,VAR_1165
VAR_0624,VAR_1165
VAR_1166,VAR_1577
VAR_1562,VAR_1574
VAR_1167,VAR_1567
VAR_1389,VAR_1563
VAR_0723,VAR_0923
VAR_0821,VAR_1570
VAR_0822,VAR_1564
VAR_0792,VAR_0923
VAR_0623,VAR_1559
VAR_0924,VAR_1387
VAR_0620,VAR_0822
VAR_1548,VAR_1562
VAR_0723,VAR_1552
VAR_0617,VAR_1547
VAR_0566,VAR_1567
VAR_0877,VAR_1557
VAR_1568,VAR_1570
VAR_1165,VAR_1566
VAR_0627,VAR_1545
VAR_0723,VAR_1568
VAR_0877,VAR_1568
VAR_0726,VAR_1532
VAR_0627,VAR_1567
VAR_0625,VAR_1563
VAR_0794,VAR_1164
VAR_0722,VAR_1428
VAR_0813,VAR_1563
VAR_0627,VAR_0795
VAR_0627,VAR_1534
VAR_0726,VAR_0741
VAR_0568,VAR_0623
VAR_0562,VAR_1567
VAR_0813,VAR_1533
VAR_0621,VAR_0831
VAR_1427,VAR_1546
VAR_0564,VAR_1570
VAR_0723,VAR_1546
VAR_0836,VAR_1543
VAR_1564,VAR_1577
VAR_0565,VAR_1566
VAR_0723,VAR_1564
VAR_0813,VAR_1428
VAR_0877,VAR_1563
VAR_0726,VAR_1535
VAR_1542,VAR_1548
VAR_0794,VAR_1163
VAR_0627,VAR_1165
VAR_0821,VAR_0831
VAR_1161,VAR_1572
VAR_0627,VAR_0792
VAR_0831,VAR_1535
VAR_0625,VAR_1557
VAR_1164,VAR_1549
VAR_0822,VAR_1572
VAR_0562,VAR_1568
VAR_1164,VAR_1577
VAR_0828,VAR_0836
VAR_0813,VAR_1534
VAR_1570,VAR_1572
VAR_1559,VAR_1567
VAR_0722,VAR_0825
VAR_0563,VAR_0821
VAR_0563,VAR_1571
VAR_0795,VAR_0836
VAR_0793,VAR_1554
VAR_0565,VAR_1561
VAR_0569,VAR_0822
VAR_1557,VAR_1561
VAR_0723,VAR_1166
VAR_0563,VAR_0792
VAR_0624,VAR_0625
VAR_1164,VAR_1386
VAR_1167,VAR_1386
VAR_1545,VAR_1574
VAR_0569,VAR_0627
VAR_0568,VAR_0793
VAR_0824,VAR_1569
VAR_0618,VAR_0795
VAR_0569,VAR_0726
VAR_0831,VAR_1161
VAR_0623,VAR_1428
VAR_1553,VAR_1571
VAR_0567,VAR_1572
VAR_0877,VAR_1165
VAR_0563,VAR_1567
VAR_0793,VAR_1553
VAR_0623,VAR_0794
VAR_0627,VAR_1574
VAR_0566,VAR_1386
VAR_0722,VAR_0730
VAR_1389,VAR_1539
VAR_0620,VAR_1562
VAR_0623,VAR_1562
VAR_0831,VAR_1389
VAR_1166,VAR_1389
VAR_1165,VAR_1570
VAR_0718,VAR_1561
VAR_0812,VAR_1568
VAR_0622,VAR_0822
VAR_0795,VAR_1559
VAR_0836,VAR_0923
VAR_0794,VAR_1569
VAR_0627,VAR_1427
VAR_1552,VAR_1565
VAR_0626,VAR_0794
VAR_0822,VAR_0833
VAR_0722,VAR_0830
VAR_0822,VAR_1535
VAR_0836,VAR_1562
VAR_0741,VAR_1572
VAR_1548,VAR_1557
VAR_0563,VAR_0626
VAR_0621,VAR_1166
VAR_0836,VAR_1559
VAR_1167,VAR_1546
VAR_1161,VAR_1388
VAR_1427,VAR_1533
VAR_0828,VAR_1561
VAR_0831,VAR_1544
VAR_0722,VAR_0740
VAR_0564,VAR_0877
VAR_1386,VAR_1571
VAR_0824,VAR_1559
VAR_0819,VAR_0877
VAR_0923,VAR_1571
VAR_0778,VAR_0836
VAR_0793,VAR_0819
VAR_1542,VAR_1571
VAR_0617,VAR_1549
VAR_1571,VAR_1577
VAR_0567,VAR_1566
VAR_1548,VAR_1558
VAR_1387,VAR_1428
VAR_0722,VAR_1568
VAR_1562,VAR_1568
VAR_0793,VAR_1568
VAR_0833,VAR_1387
VAR_0618,VAR_0877
VAR_0758,VAR_0814
VAR_0723,VAR_0820
VAR_0621,VAR_1388
VAR_0824,VAR_1538
VAR_0568,VAR_0824
VAR_0568,VAR_1574
VAR_0719,VAR_0722
VAR_0847,VAR_1547
VAR_0824,VAR_1552
VAR_1386,VAR_1546
VAR_0730,VAR_1577
VAR_0569,VAR_1544
VAR_0564,VAR_0924
VAR_0623,VAR_0924
VAR_0565,VAR_0793
VAR_0836,VAR_1538
VAR_0829,VAR_0835
VAR_0567,VAR_1545
VAR_0619,VAR_0821
VAR_0821,VAR_1564
VAR_0822,VAR_1559
VAR_0621,VAR_1168
VAR_0792,VAR_0833
VAR_0625,VAR_1427
VAR_0831,VAR_1571
VAR_0620,VAR_0621
VAR_0621,VAR_1569
VAR_0740,VAR_1567
VAR_0622,VAR_0795
VAR_0618,VAR_1567
VAR_0792,VAR_1552
VAR_0792,VAR_1164
VAR_0623,VAR_1572
VAR_0620,VAR_1572
VAR_0795,VAR_1538
VAR_0625,VAR_1570
VAR_0568,VAR_1387
VAR_0623,VAR_0813
VAR_0740,VAR_0836
VAR_0836,VAR_1533
VAR_0822,VAR_1162
VAR_0619,VAR_1428
VAR_0877,VAR_0923
VAR_1542,VAR_1547
VAR_0566,VAR_0822
VAR_1388,VAR_1572
VAR_1389,VAR_1572
VAR_1388,VAR_1552
VAR_0726,VAR_0924
VAR_0621,VAR_1562
VAR_0625,VAR_0794
VAR_0621,VAR_1548
VAR_0619,VAR_1564
VAR_0847,VAR_1533
VAR_0625,VAR_1165
VAR_0718,VAR_0726
VAR_0813,VAR_1542
VAR_0831,VAR_1533
VAR_1539,VAR_1567
VAR_0625,VAR_1577
VAR_0814,VAR_1577
VAR_0626,VAR_1163
VAR_1166,VAR_1563
VAR_0562,VAR_0626
VAR_0619,VAR_1539
VAR_0626,VAR_1571
VAR_0819,VAR_0836
VAR_1568,VAR_1572
VAR_0831,VAR_1427
VAR_0726,VAR_1166
VAR_1389,VAR_1556
VAR_0822,VAR_1542
VAR_1428,VAR_1574
VAR_1164,VAR_1546
VAR_0565,VAR_0627
VAR_1389,VAR_1543
VAR_0563,VAR_1546
VAR_0924,VAR_1388
VAR_1165,VAR_1563
VAR_0794,VAR_1574
VAR_0618,VAR_1549
VAR_0795,VAR_1166
VAR_0740,VAR_0793
VAR_1547,VAR_1570
VAR_0831,VAR_1534
VAR_0625,VAR_1545
VAR_0813,VAR_1166
VAR_0723,VAR_1535
VAR_0568,VAR_0619
VAR_0824,VAR_1534
VAR_0821,VAR_1543
VAR_0726,VAR_1564
VAR_0569,VAR_1533
VAR_0622,VAR_0836
VAR_0832,VAR_0836
VAR_0624,VAR_0836
VAR_0836,VAR_1574
VAR_0726,VAR_1546
VAR_1388,VAR_1540
VAR_0563,VAR_1549
VAR_0924,VAR_1543
VAR_0619,VAR_0813
VAR_0563,VAR_0618
VAR_0623,VAR_1388
VAR_0619,VAR_1388
VAR_0717,VAR_0722
VAR_1166,VAR_1569
VAR_1387,VAR_1574
VAR_1386,VAR_1558
VAR_0795,VAR_0847
VAR_0812,VAR_0816
VAR_0621,VAR_0836
VAR_0723,VAR_1532
VAR_0566,VAR_0793
VAR_0569,VAR_0794
VAR_0793,VAR_1537
VAR_0821,VAR_1544
VAR_0795,VAR_0814
VAR_0831,VAR_1545
VAR_0621,VAR_1535
VAR_0924,VAR_1544
VAR_0717,VAR_0836
VAR_0564,VAR_1543
VAR_0620,VAR_1545
VAR_0623,VAR_1543
VAR_0618,VAR_1547
VAR_0619,VAR_1545
VAR_0568,VAR_0831
VAR_0730,VAR_1557
VAR_0718,VAR_1571
VAR_0831,VAR_1564
VAR_0818,VAR_0831
VAR_0793,VAR_1428
VAR_1544,VAR_1565
VAR_0824,VAR_1547
VAR_0562,VAR_0619
VAR_0794,VAR_1537
VAR_1544,VAR_1547
VAR_1534,VAR_1546
VAR_0730,VAR_1165
VAR_0625,VAR_0813
VAR_1427,VAR_1564
VAR_0618,VAR_1427
VAR_0565,VAR_0618
VAR_1168,VAR_1572
VAR_0726,VAR_1548
VAR_0740,VAR_1386
VAR_0828,VAR_0877
VAR_0624,VAR_0812
VAR_0567,VAR_1386
VAR_0564,VAR_1544
VAR_0758,VAR_0822
VAR_0626,VAR_0923
VAR_1563,VAR_1572
VAR_0565,VAR_0831
VAR_0564,VAR_1566
VAR_1165,VAR_1565
VAR_0620,VAR_1165
VAR_0795,VAR_1540
VAR_1554,VAR_1565
VAR_1543,VAR_1564
VAR_0813,VAR_1577
VAR_1163,VAR_1567
VAR_0794,VAR_1538
VAR_0626,VAR_1544
VAR_0824,VAR_1167
VAR_0624,VAR_0822
VAR_0814,VAR_0821
VAR_0812,VAR_1427
VAR_0836,VAR_1167
VAR_1543,VAR_1547
VAR_0793,VAR_1570
VAR_0568,VAR_0813
VAR_0795,VAR_1572
VAR_0794,VAR_1552
VAR_0621,VAR_1572
VAR_0618,VAR_1168
VAR_0626,VAR_0847
VAR_0813,VAR_1538
VAR_0812,VAR_1570
VAR_0624,VAR_1569
VAR_0822,VAR_1558
VAR_1386,VAR_1538
VAR_0722,VAR_0815
VAR_0822,VAR_1544
